﻿biomes.png=540352519
dtm.raw=2427304320
dtm_processed.raw=653866548
main.ttw=1558742470
map_info.xml=2535443137
prefabs.xml=584263054
preview.png=960560270
radiation.png=2863921014
spawnpoints.xml=4233484172
splat3.png=2208673190
splat3_processed.png=234015235
splat4_processed.png=3626820105
water_info.xml=3671478431
